<?xml version="1.0" encoding="UTF-8" standalone="no"?>
<!-- Created with Inkscape (http://www.inkscape.org/) -->

<svg
   xmlns:dc="http://purl.org/dc/elements/1.1/"
   xmlns:cc="http://creativecommons.org/ns#"
   xmlns:rdf="http://www.w3.org/1999/02/22-rdf-syntax-ns#"
   xmlns:svg="http://www.w3.org/2000/svg"
   xmlns="http://www.w3.org/2000/svg"
   xmlns:xlink="http://www.w3.org/1999/xlink"
   xmlns:sodipodi="http://sodipodi.sourceforge.net/DTD/sodipodi-0.dtd"
   xmlns:inkscape="http://www.inkscape.org/namespaces/inkscape"
   width="77.969345mm"
   height="34.562717mm"
   viewBox="0 0 77.969345 34.562717"
   version="1.1"
   id="svg8"
   inkscape:version="0.92.1 r15371"
   sodipodi:docname="Yellow Tote.svg">
  <defs
     id="defs2">
    <linearGradient
       inkscape:collect="always"
       id="linearGradient4579">
      <stop
         style="stop-color:#d2d400;stop-opacity:1"
         offset="0"
         id="stop4575" />
      <stop
         style="stop-color:#d4d000;stop-opacity:1"
         offset="1"
         id="stop4577" />
    </linearGradient>
    <linearGradient
       inkscape:collect="always"
       xlink:href="#linearGradient4579"
       id="linearGradient4581"
       x1="114.87568"
       y1="46.100574"
       x2="121.35408"
       y2="65.88089"
       gradientUnits="userSpaceOnUse"
       gradientTransform="matrix(3.5043169,1.4158359,-1.4158359,3.5043169,-5.7847115e-7,20)" />
  </defs>
  <sodipodi:namedview
     id="base"
     pagecolor="#ffffff"
     bordercolor="#666666"
     borderopacity="1.0"
     inkscape:pageopacity="0.0"
     inkscape:pageshadow="2"
     inkscape:zoom="2"
     inkscape:cx="-90.938051"
     inkscape:cy="59.671964"
     inkscape:document-units="mm"
     inkscape:current-layer="layer1"
     showgrid="false"
     inkscape:lockguides="true"
     inkscape:window-width="1920"
     inkscape:window-height="1017"
     inkscape:window-x="1912"
     inkscape:window-y="-8"
     inkscape:window-maximized="1"
     fit-margin-top="0"
     fit-margin-left="0"
     fit-margin-right="0"
     fit-margin-bottom="0" />
  <metadata
     id="metadata5">
    <rdf:RDF>
      <cc:Work
         rdf:about="">
        <dc:format>image/svg+xml</dc:format>
        <dc:type
           rdf:resource="http://purl.org/dc/dcmitype/StillImage" />
        <dc:title></dc:title>
      </cc:Work>
    </rdf:RDF>
  </metadata>
  <g
     inkscape:label="Layer 1"
     inkscape:groupmode="layer"
     id="layer1"
     transform="translate(-48.769164,-92.588524)">
    <path
       style="fill:#a8aa00;fill-opacity:1;stroke:#000000;stroke-width:0.26458332px;stroke-linecap:butt;stroke-linejoin:miter;stroke-opacity:1"
       d="m 50,116.46291 50.00001,-2.1167 V 94.247268 L 50,96.363969 v 20.098941"
       id="path4498"
       inkscape:connector-curvature="0"
       sodipodi:nodetypes="ccccc" />
    <path
       style="opacity:1;fill:#807e00;fill-opacity:1;fill-rule:nonzero;stroke:#000000;stroke-width:0.30199999;stroke-linecap:round;stroke-linejoin:round;stroke-miterlimit:4;stroke-dasharray:none;stroke-dashoffset:0;stroke-opacity:1;paint-order:stroke fill markers"
       d="m 99.470843,94.247267 24.999997,9.478753 2.11667,21.15727 -27.116667,-10.53709 z"
       id="rect4496"
       inkscape:connector-curvature="0"
       sodipodi:nodetypes="ccccc" />
    <path
       style="fill:#939139;fill-opacity:1;stroke:#000000;stroke-width:0.26499999;stroke-linecap:butt;stroke-linejoin:miter;stroke-miterlimit:4;stroke-dasharray:none;stroke-opacity:1"
       d="m 76.587502,127 50.000008,-2.11671 -1.24782,-12.51708 -50.835128,1.85869 z"
       id="path4503"
       inkscape:connector-curvature="0"
       sodipodi:nodetypes="ccccc" />
    <path
       style="opacity:1;fill:#555300;fill-opacity:1;fill-rule:nonzero;stroke:#000000;stroke-width:0.3024981;stroke-linecap:round;stroke-linejoin:round;stroke-miterlimit:4;stroke-dasharray:none;stroke-dashoffset:0;stroke-opacity:1;paint-order:stroke fill markers"
       d="M 50.000002,96.363972 74.470836,105.84273 76.587502,127 50.000002,116.46291 Z"
       id="rect4485"
       inkscape:connector-curvature="0"
       sodipodi:nodetypes="ccccc" />
    <rect
       style="opacity:1;fill:#f2f2f2;fill-opacity:1;fill-rule:nonzero;stroke:#000000;stroke-width:0.30000001;stroke-linecap:round;stroke-linejoin:round;stroke-miterlimit:4;stroke-dasharray:none;stroke-dashoffset:0;stroke-opacity:1;paint-order:stroke fill markers"
       id="rect10295"
       width="16.007292"
       height="7.9375"
       x="89.157661"
       y="119.22633"
       ry="0.92604166"
       transform="rotate(-2)" />
    <rect
       style="opacity:1;fill:#000000;fill-opacity:1;fill-rule:nonzero;stroke:none;stroke-width:0.19904432;stroke-linecap:round;stroke-linejoin:round;stroke-miterlimit:4;stroke-dasharray:none;stroke-dashoffset:0;stroke-opacity:1;paint-order:stroke fill markers"
       id="rect10297-8"
       width="0.4941465"
       height="5.1449385"
       x="92.275566"
       y="120.62369"
       ry="0"
       transform="rotate(-2)" />
    <rect
       ry="0"
       y="120.62369"
       x="93.333885"
       height="5.1449385"
       width="1.122532"
       id="rect10314-4"
       style="opacity:1;fill:#000000;fill-opacity:1;fill-rule:nonzero;stroke:none;stroke-width:0.30000001;stroke-linecap:round;stroke-linejoin:round;stroke-miterlimit:4;stroke-dasharray:none;stroke-dashoffset:0;stroke-opacity:1;paint-order:stroke fill markers"
       transform="rotate(-2)" />
    <rect
       style="opacity:1;fill:#000000;fill-opacity:1;fill-rule:nonzero;stroke:none;stroke-width:0.19904432;stroke-linecap:round;stroke-linejoin:round;stroke-miterlimit:4;stroke-dasharray:none;stroke-dashoffset:0;stroke-opacity:1;paint-order:stroke fill markers"
       id="rect10316-1"
       width="0.4941465"
       height="5.1449385"
       x="94.985573"
       y="120.62369"
       ry="0"
       transform="rotate(-2)" />
    <rect
       ry="0"
       y="120.62369"
       x="95.979683"
       height="5.1449385"
       width="0.52721941"
       id="rect10318-6"
       style="opacity:1;fill:#000000;fill-opacity:1;fill-rule:nonzero;stroke:none;stroke-width:0.2055974;stroke-linecap:round;stroke-linejoin:round;stroke-miterlimit:4;stroke-dasharray:none;stroke-dashoffset:0;stroke-opacity:1;paint-order:stroke fill markers"
       transform="rotate(-2)" />
    <rect
       ry="0"
       y="120.62369"
       x="97.036057"
       height="5.1449385"
       width="1.122532"
       id="rect10314-0-1"
       style="opacity:1;fill:#000000;fill-opacity:1;fill-rule:nonzero;stroke:none;stroke-width:0.30000001;stroke-linecap:round;stroke-linejoin:round;stroke-miterlimit:4;stroke-dasharray:none;stroke-dashoffset:0;stroke-opacity:1;paint-order:stroke fill markers"
       transform="rotate(-2)" />
    <rect
       ry="0"
       y="120.62369"
       x="98.687752"
       height="5.1449385"
       width="1.122532"
       id="rect10314-7-8"
       style="opacity:1;fill:#000000;fill-opacity:1;fill-rule:nonzero;stroke:none;stroke-width:0.30000001;stroke-linecap:round;stroke-linejoin:round;stroke-miterlimit:4;stroke-dasharray:none;stroke-dashoffset:0;stroke-opacity:1;paint-order:stroke fill markers"
       transform="rotate(-2)" />
    <rect
       style="opacity:1;fill:#000000;fill-opacity:1;fill-rule:nonzero;stroke:none;stroke-width:0.19904432;stroke-linecap:round;stroke-linejoin:round;stroke-miterlimit:4;stroke-dasharray:none;stroke-dashoffset:0;stroke-opacity:1;paint-order:stroke fill markers"
       id="rect10316-8-7"
       width="0.49414653"
       height="5.1449385"
       x="100.33944"
       y="120.62369"
       ry="0"
       transform="rotate(-2)" />
    <rect
       ry="0"
       y="120.62369"
       x="101.33355"
       height="5.1449385"
       width="0.52721941"
       id="rect10318-0-3"
       style="opacity:1;fill:#000000;fill-opacity:1;fill-rule:nonzero;stroke:none;stroke-width:0.2055974;stroke-linecap:round;stroke-linejoin:round;stroke-miterlimit:4;stroke-dasharray:none;stroke-dashoffset:0;stroke-opacity:1;paint-order:stroke fill markers"
       transform="rotate(-2)" />
    <path
       style="opacity:1;fill:url(#linearGradient4581);fill-opacity:1;fill-rule:nonzero;stroke:#000000;stroke-width:1.13385832;stroke-linecap:round;stroke-linejoin:round;stroke-miterlimit:4;stroke-dasharray:none;stroke-dashoffset:0;stroke-opacity:1;paint-order:stroke fill markers"
       d="m 376.51172,350.50781 -187.95899,11.85938 c -1.44341,-0.0683 -2.83276,0.75441 -3.40625,2.17383 -0.72636,1.79781 0.13579,3.82832 1.9336,4.55468 l 93.8789,37.92969 c 1.79781,0.72636 3.82833,-0.13578 4.55469,-1.93359 0.72636,-1.79781 -0.13578,-3.83028 -1.93359,-4.55664 L 202.82031,367.9043 378,358.41406 l -0.006,-0.0273 91.09375,36.80469 c 1.79781,0.72636 3.83028,-0.13579 4.55664,-1.9336 0.72636,-1.79781 -0.13774,-3.83028 -1.93555,-4.55664 l -93.87695,-37.92969 c -0.43345,-0.17512 -0.87925,-0.25239 -1.31836,-0.25195 z"
       transform="scale(0.26458333)"
       id="rect4539"
       inkscape:connector-curvature="0" />
  </g>
</svg>
