<?xml version="1.0" encoding="UTF-8" standalone="no"?>
<!-- Created with Inkscape (http://www.inkscape.org/) -->

<svg
   xmlns:dc="http://purl.org/dc/elements/1.1/"
   xmlns:cc="http://creativecommons.org/ns#"
   xmlns:rdf="http://www.w3.org/1999/02/22-rdf-syntax-ns#"
   xmlns:svg="http://www.w3.org/2000/svg"
   xmlns="http://www.w3.org/2000/svg"
   xmlns:sodipodi="http://sodipodi.sourceforge.net/DTD/sodipodi-0.dtd"
   xmlns:inkscape="http://www.inkscape.org/namespaces/inkscape"
   width="200mm"
   height="200mm"
   viewBox="0 0 200 200"
   version="1.1"
   id="svg8"
   sodipodi:docname="RestoreTemplate.svg"
   inkscape:version="0.92.1 r15371">
  <defs
     id="defs2" />
  <sodipodi:namedview
     id="base"
     pagecolor="#ffffff"
     bordercolor="#666666"
     borderopacity="1.0"
     inkscape:pageopacity="0.0"
     inkscape:pageshadow="2"
     inkscape:zoom="0.7"
     inkscape:cx="433.45512"
     inkscape:cy="319.78523"
     inkscape:document-units="mm"
     inkscape:current-layer="layer1"
     showgrid="false"
     inkscape:window-width="1920"
     inkscape:window-height="1017"
     inkscape:window-x="1912"
     inkscape:window-y="-8"
     inkscape:window-maximized="1" />
  <metadata
     id="metadata5">
    <rdf:RDF>
      <cc:Work
         rdf:about="">
        <dc:format>image/svg+xml</dc:format>
        <dc:type
           rdf:resource="http://purl.org/dc/dcmitype/StillImage" />
        <dc:title></dc:title>
      </cc:Work>
    </rdf:RDF>
  </metadata>
  <g
     inkscape:label="Layer 1"
     inkscape:groupmode="layer"
     id="layer1"
     transform="translate(0,-97)">
    <path
       style="fill:#000000;fill-opacity:1;stroke:none;stroke-width:0.32014582px;stroke-linecap:butt;stroke-linejoin:miter;stroke-opacity:1"
       d="m 91.18175,289.06504 c 31.90848,-3.11691 65.7839,-19.59129 82.69439,-42.46788 18.26521,-24.70927 24.21082,-65.52965 9.32119,-97.42609 -11.98945,-25.6837 -48.38209,-47.02299 -79.05281,-47.0842 -31.837648,-0.0635 -58.14692,10.72548 -79.311195,37.77072 -5.500817,7.02933 18.211636,23.29241 18.211636,23.29241 22.236547,-26.90151 39.176082,-33.00697 59.538069,-33.08622 20.9834,-0.0817 49.00515,10.3462 60.22293,35.41498 9.62766,21.51529 9.70784,43.49656 -0.75775,68.47269 -11.56502,27.59995 -42.66733,45.61024 -70.866448,55.11359 z"
       id="path4497"
       inkscape:connector-curvature="0"
       sodipodi:nodetypes="csssscssscc" />
    <path
       sodipodi:type="star"
       style="fill:#000000;fill-opacity:1;fill-rule:nonzero;stroke:none;stroke-width:1.46410012;stroke-linecap:square;stroke-linejoin:round;stroke-miterlimit:4;stroke-dasharray:1.46409999, 1.46409999000000000;stroke-dashoffset:0;stroke-opacity:1;paint-order:fill markers stroke"
       id="path4501"
       sodipodi:sides="3"
       sodipodi:cx="28.322748"
       sodipodi:cy="158.23749"
       sodipodi:r1="38.021496"
       sodipodi:r2="18.009792"
       sodipodi:arg1="0.15499674"
       sodipodi:arg2="1.2021943"
       inkscape:flatsided="true"
       inkscape:rounded="0"
       inkscape:randomized="0"
       d="M 65.888444,164.10713 4.4566433,187.83551 14.623158,122.76982 Z"
       inkscape:transform-center-x="-4.0338714"
       inkscape:transform-center-y="-5.2826689" />
    <rect
       style="fill:#000000;fill-opacity:1;fill-rule:nonzero;stroke:none;stroke-width:1.33100009;stroke-linecap:square;stroke-linejoin:round;stroke-miterlimit:4;stroke-dasharray:1.33099999, 1.33099999000000000;stroke-dashoffset:0;stroke-opacity:1;paint-order:fill markers stroke"
       id="rect4513"
       width="13.517958"
       height="61.186543"
       x="94.805008"
       y="136.24194"
       ry="6.7589788" />
    <rect
       style="fill:#000000;fill-opacity:1;fill-rule:nonzero;stroke:none;stroke-width:1.07522595;stroke-linecap:square;stroke-linejoin:round;stroke-miterlimit:4;stroke-dasharray:1.07522598, 1.07522597999999990;stroke-dashoffset:0;stroke-opacity:1;paint-order:fill markers stroke"
       id="rect4513-6"
       width="13.517958"
       height="39.93"
       x="219.70009"
       y="-32.647987"
       ry="6.7589788"
       transform="rotate(60)" />
    <circle
       style="fill:#000000;fill-opacity:1;fill-rule:nonzero;stroke:none;stroke-width:2.03945637;stroke-linecap:square;stroke-linejoin:round;stroke-miterlimit:4;stroke-dasharray:2.03945647, 2.03945647000000020;stroke-dashoffset:0;stroke-opacity:1;paint-order:fill markers stroke"
       id="path4530"
       cx="101.91277"
       cy="202.29675"
       r="13.31" />
  </g>
</svg>
