<?xml version="1.0" encoding="UTF-8" standalone="no"?>
<!-- Created with Inkscape (http://www.inkscape.org/) -->

<svg
   xmlns:dc="http://purl.org/dc/elements/1.1/"
   xmlns:cc="http://creativecommons.org/ns#"
   xmlns:rdf="http://www.w3.org/1999/02/22-rdf-syntax-ns#"
   xmlns:svg="http://www.w3.org/2000/svg"
   xmlns="http://www.w3.org/2000/svg"
   xmlns:sodipodi="http://sodipodi.sourceforge.net/DTD/sodipodi-0.dtd"
   xmlns:inkscape="http://www.inkscape.org/namespaces/inkscape"
   width="159.45398mm"
   height="129.73512mm"
   viewBox="0 0 159.45398 129.73512"
   version="1.1"
   id="svg8"
   inkscape:version="0.92.1 r15371"
   sodipodi:docname="INNER.svg">
  <defs
     id="defs2" />
  <sodipodi:namedview
     id="base"
     pagecolor="#ffffff"
     bordercolor="#666666"
     borderopacity="1.0"
     inkscape:pageopacity="0.0"
     inkscape:pageshadow="2"
     inkscape:zoom="0.98994949"
     inkscape:cx="232.94559"
     inkscape:cy="289.79367"
     inkscape:document-units="mm"
     inkscape:current-layer="layer1"
     showgrid="false"
     fit-margin-top="0"
     fit-margin-left="0"
     fit-margin-right="0"
     fit-margin-bottom="0"
     inkscape:window-width="1920"
     inkscape:window-height="1017"
     inkscape:window-x="1912"
     inkscape:window-y="-8"
     inkscape:window-maximized="1" />
  <metadata
     id="metadata5">
    <rdf:RDF>
      <cc:Work
         rdf:about="">
        <dc:format>image/svg+xml</dc:format>
        <dc:type
           rdf:resource="http://purl.org/dc/dcmitype/StillImage" />
        <dc:title></dc:title>
      </cc:Work>
    </rdf:RDF>
  </metadata>
  <g
     inkscape:label="Layer 1"
     inkscape:groupmode="layer"
     id="layer1"
     transform="translate(-22.029765,-90.248523)">
    <path
       style="fill:#808000;fill-opacity:1;stroke:none;stroke-width:0.23417526px;stroke-linecap:butt;stroke-linejoin:miter;stroke-opacity:1"
       d="m 133.3199,211.21974 c 13.07572,-5.46509 23.15571,12.28595 38.24008,-1.06909 15.08438,-13.35503 12.18467,-29.15554 -3.37502,-44.90128 -15.55969,-15.74573 -4.20665,-17.02685 -25.071,-18.71077 -20.86435,-1.68391 -73.315493,5.95665 -94.686468,15.23627 -21.370973,9.27963 -31.440543,31.15216 -23.922031,43.56494 7.518512,12.41278 41.233734,6.7492 52.51077,2.13816 11.277023,-4.61105 43.227959,9.20686 56.303669,3.74177 z"
       id="path4530"
       inkscape:connector-curvature="0"
       sodipodi:nodetypes="zzzzzzzz" />
    <path
       style="fill:#cccccc;stroke:#000000;stroke-width:0.26458332px;stroke-linecap:butt;stroke-linejoin:miter;stroke-opacity:1"
       d="m 51.215774,185.87499 c 5.776131,6.50045 12.292829,12.08871 21.73363,14.74108 11.694136,1.89521 13.439506,2.49876 26.269346,0.94494 7.04047,-1.79551 24.19025,-12.18373 24.37947,-19.0878 v -48.38095 l -11.33929,12.85119 -6.04762,-3.77976 -10.58333,12.09523 -9.82738,-11.33928 -2.26786,36.28571 -8.315481,-30.99404 -7.559522,26.45833 -3.023811,-26.45833 -5.291667,7.55952 -5.291666,-15.875 -4.535713,9.82738 -3.023809,-14.36309 0.755952,38.55357 c -0.01189,1.99168 0.01595,5.67181 3.968751,10.9613 z"
       id="path4485"
       inkscape:connector-curvature="0"
       sodipodi:nodetypes="ccccccccccccccccccc" />
    <path
       style="fill:none;stroke:#000000;stroke-width:0.26458332px;stroke-linecap:butt;stroke-linejoin:miter;stroke-opacity:1"
       d="m 46.491071,136.36012 3.023809,6.04761 2.456844,-8.50446 2.078868,6.99256 4.346729,-20.41071 3.401785,12.85118 3.590774,-6.99256 1.889881,8.50447 5.291667,-10.20536 2.456844,4.7247 5.102678,3.59078 5.48066,-8.12649 3.0238,6.80357 10.58334,-9.4494 2.64583,-8.12649 9.82738,14.17411 -1.13393,12.85119 13.04019,-6.99256"
       id="path4487"
       inkscape:connector-curvature="0" />
    <path
       style="fill:#ececec;stroke:#000000;stroke-width:0.26458332px;stroke-linecap:butt;stroke-linejoin:miter;stroke-opacity:1"
       d="m 144.95387,174.34672 -9.44941,13.60714 17.00893,1.88988 z"
       id="path4491"
       inkscape:connector-curvature="0" />
    <path
       style="fill:none;stroke:#000000;stroke-width:0.26458332px;stroke-linecap:butt;stroke-linejoin:miter;stroke-opacity:1"
       d="m 130.2128,191.35565 -20.03274,10.77232 7.9375,11.33928 -2.45684,6.4256 15.875,-16.81994 z"
       id="path4493"
       inkscape:connector-curvature="0" />
    <path
       style="fill:#cccccc;stroke:#000000;stroke-width:0.26458332px;stroke-linecap:butt;stroke-linejoin:miter;stroke-opacity:1"
       d="m 39.687498,206.66368 -14.174107,0.37798 21.544642,5.48066 c 0,0 10.205358,-6.23661 9.260417,-6.4256 -0.944938,-0.18899 -15.119046,-2.83482 -15.119046,-2.83482 z"
       id="path4495"
       inkscape:connector-curvature="0" />
    <path
       style="fill:#e6e6e6;stroke:#000000;stroke-width:0.26499999;stroke-linecap:butt;stroke-linejoin:miter;stroke-miterlimit:4;stroke-dasharray:none;stroke-opacity:1"
       d="m 143.14041,139.0027 c 8.53805,7.72254 3.55292,9.85772 -2.0488,22.37236 l -8.01809,13.89801 0.30965,-12.03802 -15.54401,6.15809 -0.3713,-14.15487 -7.91405,3.19682 2.13815,-30.20146 -56.928407,25.65788 12.294399,-10.95805 -3.207234,-12.2944 c 2.812331,-6.62308 3.477899,-15.54985 15.62418,-14.80859 l 33.820682,2.24692 z"
       id="path4506"
       inkscape:connector-curvature="0"
       sodipodi:nodetypes="cccccccccccccc" />
    <path
       style="opacity:1;fill:#e1e5e9;fill-opacity:1;fill-rule:nonzero;stroke:#000000;stroke-width:2;stroke-linecap:round;stroke-linejoin:round;stroke-miterlimit:4;stroke-dasharray:none;stroke-dashoffset:0;stroke-opacity:1;paint-order:stroke fill markers"
       d="m 86.95805,95.270676 -7.483152,20.559804 0.04275,0.0153 a 33.733695,13.133831 20 0 0 27.238492,23.76085 33.733695,13.133831 20 0 0 36.13466,-0.69472 l 0.24961,0.0908 7.48313,-20.5598 z"
       id="rect4499"
       inkscape:connector-curvature="0" />
    <ellipse
       style="opacity:1;fill:#e1e5e9;fill-opacity:1;fill-rule:nonzero;stroke:#000000;stroke-width:2;stroke-linecap:round;stroke-linejoin:round;stroke-miterlimit:4;stroke-dasharray:none;stroke-dashoffset:0;stroke-opacity:1;paint-order:stroke fill markers"
       id="path4497"
       cx="148.06613"
       cy="61.192238"
       rx="33.733696"
       ry="13.133831"
       transform="rotate(20)" />
    <path
       style="opacity:1;fill:#ececec;fill-opacity:1;fill-rule:nonzero;stroke:#000000;stroke-width:0.26769042;stroke-linecap:round;stroke-linejoin:round;stroke-miterlimit:4;stroke-dasharray:none;stroke-dashoffset:0;stroke-opacity:1;paint-order:stroke fill markers"
       d="m 79.52729,164.24939 c -2.035665,-7.60568 -3.812995,-14.24288 -3.949623,-14.74934 -0.179152,-0.66407 -0.30683,-0.81311 -0.457904,-0.53453 -0.115218,0.21246 -1.816947,6.03454 -3.781616,12.93796 -1.964668,6.90342 -3.60104,12.31563 -3.63638,12.02713 -0.642477,-5.2448 -2.74329,-24.26563 -2.686336,-24.32218 0.04284,-0.0425 6.904517,-3.15565 15.248165,-6.91801 l 15.170269,-6.84067 1.534075,0.77143 c 2.579182,1.29698 7.52701,3.38031 10.55442,4.44405 l 2.87315,1.00954 -0.004,1.23309 c -0.006,1.95122 -0.17569,2.00189 -2.31951,0.69467 l -1.91513,-1.16777 -5.26074,6.01239 c -2.893414,3.30681 -5.293012,5.97586 -5.332449,5.93122 -0.03944,-0.0446 -2.206061,-2.54673 -4.814723,-5.5602 -4.525838,-5.22814 -5.209296,-5.94111 -5.209535,-5.43448 -5.29e-4,0.98408 -2.154832,34.13819 -2.222724,34.20609 -0.04846,0.0485 -1.753661,-6.13471 -3.789326,-13.74039 z"
       id="path4520"
       inkscape:connector-curvature="0" />
    <path
       style="opacity:1;fill:#ececec;fill-opacity:1;fill-rule:nonzero;stroke:#000000;stroke-width:0.26769042;stroke-linecap:round;stroke-linejoin:round;stroke-miterlimit:4;stroke-dasharray:none;stroke-dashoffset:0;stroke-opacity:1;paint-order:stroke fill markers"
       d="m 55.95473,145.8675 -1.647034,-4.95695 1.959322,-9.17742 c 1.077627,-5.04758 2.00325,-9.40241 2.05694,-9.67739 0.05369,-0.27498 0.816998,2.23593 1.696241,5.5798 0.879244,3.34386 1.663141,6.08003 1.741998,6.08038 0.07885,2.6e-4 0.508389,-0.74034 0.954521,-1.64595 l 0.811152,-1.64658 1.14028,4.38609 c 0.627155,2.41235 1.361988,5.19569 1.632958,6.18521 l 0.492678,1.79913 -4.414734,3.94717 c -2.428105,2.17094 -4.496311,3.97784 -4.596011,4.01532 -0.0997,0.0375 -0.922444,-2.16248 -1.828311,-4.88881 z"
       id="path4522"
       inkscape:connector-curvature="0" />
    <path
       style="opacity:1;fill:#ececec;fill-opacity:1;fill-rule:nonzero;stroke:#000000;stroke-width:0.26769042;stroke-linecap:round;stroke-linejoin:round;stroke-miterlimit:4;stroke-dasharray:none;stroke-dashoffset:0;stroke-opacity:1;paint-order:stroke fill markers"
       d="M 48.551392,144.89211 C 47.997275,142.2 47.488588,139.6967 47.420971,139.3292 c -0.06762,-0.36749 0.375809,0.28635 0.985382,1.45299 0.768556,1.47092 1.169353,2.00348 1.307407,1.73726 0.109495,-0.21116 0.662704,-2.04765 1.229349,-4.08111 l 1.030267,-3.69719 0.892365,3.06078 0.892366,3.06079 -1.705222,3.71 c -2.764099,6.01378 -2.337424,5.97487 -3.501493,0.31939 z"
       id="path4524"
       inkscape:connector-curvature="0" />
    <path
       style="opacity:1;fill:#ececec;fill-opacity:1;fill-rule:nonzero;stroke:#000000;stroke-width:0.26769042;stroke-linecap:round;stroke-linejoin:round;stroke-miterlimit:4;stroke-dasharray:none;stroke-dashoffset:0;stroke-opacity:1;paint-order:stroke fill markers"
       d="m 58.810947,154.42529 c -0.323366,-0.97172 -0.545507,-1.7963 -0.493649,-1.83241 0.362992,-0.25275 4.923576,-2.22655 4.995315,-2.16195 0.04959,0.0447 -0.810707,1.35919 -1.911779,2.92116 l -2.001948,2.83995 z"
       id="path4526"
       inkscape:connector-curvature="0" />
    <path
       style="opacity:1;fill:#ececec;fill-opacity:1;fill-rule:nonzero;stroke:#000000;stroke-width:0.26769042;stroke-linecap:round;stroke-linejoin:round;stroke-miterlimit:4;stroke-dasharray:none;stroke-dashoffset:0;stroke-opacity:1;paint-order:stroke fill markers"
       d="m 116.54271,218.41573 c 0,-0.0825 0.41895,-1.21715 0.93101,-2.52147 0.89389,-2.27696 0.91327,-2.39865 0.48602,-3.0528 -0.24474,-0.37472 -1.99083,-2.89617 -3.8802,-5.60321 -1.88937,-2.70704 -3.34086,-5.00861 -3.22553,-5.1146 0.3402,-0.31268 18.73676,-10.14235 18.98173,-10.14235 0.12312,0 0.49486,2.48773 0.82608,5.5283 l 0.60221,5.52831 -1.69874,1.75479 c -0.9343,0.96513 -3.84493,4.03994 -6.46807,6.83291 -6.18542,6.58588 -6.55451,6.96823 -6.55451,6.79012 z"
       id="path4528"
       inkscape:connector-curvature="0" />
  </g>
</svg>
