<?xml version="1.0" encoding="UTF-8" standalone="no"?>
<!-- Created with Inkscape (http://www.inkscape.org/) -->

<svg
   xmlns:dc="http://purl.org/dc/elements/1.1/"
   xmlns:cc="http://creativecommons.org/ns#"
   xmlns:rdf="http://www.w3.org/1999/02/22-rdf-syntax-ns#"
   xmlns:svg="http://www.w3.org/2000/svg"
   xmlns="http://www.w3.org/2000/svg"
   xmlns:sodipodi="http://sodipodi.sourceforge.net/DTD/sodipodi-0.dtd"
   xmlns:inkscape="http://www.inkscape.org/namespaces/inkscape"
   width="155.1268mm"
   height="132.69131mm"
   viewBox="0 0 155.1268 132.69131"
   version="1.1"
   id="svg8"
   inkscape:version="0.92.1 r15371"
   sodipodi:docname="Corregated Box Damaged.svg">
  <defs
     id="defs2">
    <filter
       inkscape:label="Lapping"
       inkscape:menu="Distort"
       inkscape:menu-tooltip="Something like a water noise"
       height="1.3"
       y="-0.15000001"
       width="1.3"
       x="-0.15000001"
       style="color-interpolation-filters:sRGB"
       id="filter4585">
      <feTurbulence
         numOctaves="5"
         seed="0"
         type="fractalNoise"
         baseFrequency="0.1"
         result="result1"
         id="feTurbulence4579" />
      <feGaussianBlur
         stdDeviation="2"
         result="result2"
         id="feGaussianBlur4581" />
      <feDisplacementMap
         scale="50"
         yChannelSelector="B"
         xChannelSelector="R"
         in="SourceGraphic"
         in2="result2"
         id="feDisplacementMap4583" />
    </filter>
    <filter
       inkscape:label="Ripple"
       inkscape:menu="Distort"
       inkscape:menu-tooltip="Horizontal rippling of edges"
       style="color-interpolation-filters:sRGB"
       id="filter4597">
      <feTurbulence
         numOctaves="1"
         baseFrequency="0.002 0.107"
         id="feTurbulence4591" />
      <feColorMatrix
         values="2 0 0 0 0 0 0 0 0 0 0 0 0 0 0 0 0 0 0.5 0.5"
         result="result91"
         id="feColorMatrix4593" />
      <feDisplacementMap
         yChannelSelector="A"
         xChannelSelector="R"
         scale="14.3"
         in="SourceGraphic"
         in2="result91"
         id="feDisplacementMap4595" />
    </filter>
  </defs>
  <sodipodi:namedview
     id="base"
     pagecolor="#ffffff"
     bordercolor="#666666"
     borderopacity="1.0"
     inkscape:pageopacity="0.0"
     inkscape:pageshadow="2"
     inkscape:zoom="1.4"
     inkscape:cx="263.25975"
     inkscape:cy="90.689939"
     inkscape:document-units="mm"
     inkscape:current-layer="layer1"
     showgrid="false"
     fit-margin-top="0"
     fit-margin-left="0"
     fit-margin-right="0"
     fit-margin-bottom="0"
     inkscape:window-width="1920"
     inkscape:window-height="1017"
     inkscape:window-x="1912"
     inkscape:window-y="-8"
     inkscape:window-maximized="1" />
  <metadata
     id="metadata5">
    <rdf:RDF>
      <cc:Work
         rdf:about="">
        <dc:format>image/svg+xml</dc:format>
        <dc:type
           rdf:resource="http://purl.org/dc/dcmitype/StillImage" />
        <dc:title></dc:title>
      </cc:Work>
    </rdf:RDF>
  </metadata>
  <g
     inkscape:label="Layer 1"
     inkscape:groupmode="layer"
     id="layer1"
     transform="translate(-37.041666,-78.886075)">
    <path
       style="opacity:1;fill:#e4dee4;fill-opacity:1;fill-rule:nonzero;stroke:none;stroke-width:20;stroke-linecap:round;stroke-linejoin:round;stroke-miterlimit:4;stroke-dasharray:none;stroke-dashoffset:0;stroke-opacity:1;paint-order:fill markers stroke"
       d="M 49.917366,89.844124 129.51692,78.886075 188.52079,89.844127 V 192.54018 l -5.5803,19.03721 -145.898824,-1.3e-4 V 103.47619 Z"
       id="rect4526"
       inkscape:connector-curvature="0"
       sodipodi:nodetypes="cccccccc" />
    <path
       style="opacity:1;fill:#cdb397;fill-opacity:1;fill-rule:nonzero;stroke:none;stroke-width:71.8110199;stroke-linecap:round;stroke-linejoin:round;stroke-miterlimit:4;stroke-dasharray:none;stroke-dashoffset:0;stroke-opacity:1;paint-order:fill markers stroke"
       d="m 712.51953,339.56836 -5.33398,11.28711 -228.50356,-34.34518 -45.98543,69.53108 13.73117,21.21254 v 216.5332 H 400.71484 V 473.56641 L 360.2168,548.125 312.57617,555.20312 400.71484,407.25391 H 140 v 0 l 48.66406,320.45703 h 405.6543 l 97.10937,71.95117 21.0918,-71.95117 z m -534.51562,11.28711 -34.46838,36.57384 266.27306,-5.42855 44.85966,-63.47017 z"
       transform="scale(0.26458333)"
       id="rect4496"
       inkscape:connector-curvature="0"
       sodipodi:nodetypes="ccccccccccccccccccccccc" />
    <path
       style="opacity:1;fill:#d0af82;fill-opacity:1;fill-rule:nonzero;stroke:none;stroke-width:75.59055328;stroke-linecap:round;stroke-linejoin:round;stroke-miterlimit:4;stroke-dasharray:none;stroke-dashoffset:0;stroke-opacity:1;paint-order:fill markers stroke"
       d="m 140,407.25391 v 392.4082 h 551.42773 l -96.97465,-321.69752 -161.75652,-91.92322 0.0941,158.98951 -8.24379,-8.00158 -0.66797,14.00586 -5.64649,-21.45508 -17.51758,17.36328 V 407.25391 Z"
       id="rect4485"
       inkscape:connector-curvature="0"
       sodipodi:nodetypes="cccccccccccc"
       transform="scale(0.26458333)" />
    <path
       style="fill:none;stroke:none;stroke-width:0.26458332px;stroke-linecap:butt;stroke-linejoin:miter;stroke-opacity:1"
       d="M 37.041666,103.47619 46.269655,87.141668 192.16847,195.24286 182.94049,211.57739 Z"
       id="path4498"
       inkscape:connector-curvature="0"
       sodipodi:nodetypes="ccccc" />
    <path
       style="fill:#ab7f52;fill-opacity:1;stroke:none;stroke-width:0.26458332px;stroke-linecap:butt;stroke-linejoin:miter;stroke-opacity:1"
       d="m 142.31529,120.04708 46.2055,-30.202953 V 192.54018 l -5.58054,19.03708 z"
       id="path4506"
       inkscape:connector-curvature="0"
       sodipodi:nodetypes="ccccc" />
    <path
       style="fill:#271209;fill-opacity:1;stroke:none;stroke-width:0.26458332px;stroke-linecap:butt;stroke-linejoin:miter;stroke-opacity:1"
       d="m 142.31529,120.04708 2.436,-1.34585 -30.26699,-16.56112 15.70867,15.20185 5.54781,12.75228 -9.08324,16.82292 8.64435,16.94082 -9.90798,36.92444 26.17275,-45.5989 -8.68626,-11.35896 11.22532,-12.29439 -11.79043,-11.48309"
       id="path4692"
       inkscape:connector-curvature="0"
       sodipodi:nodetypes="cccccccccccc" />
    <path
       style="opacity:1;fill:#e4dee4;fill-opacity:1;fill-rule:nonzero;stroke:#e4dee4;stroke-width:0.5;stroke-linecap:round;stroke-linejoin:round;stroke-miterlimit:4;stroke-dasharray:none;stroke-dashoffset:0;stroke-opacity:1;paint-order:fill markers stroke"
       d="m 114.4843,102.14011 9.25383,2.88302 c 3.86769,3.1486 15.92495,29.86096 7.00169,49.2913 l 3.58288,4.1715 c -0.4474,-12.61322 -5.48321,-46.43057 -13.52208,-48.0059 l -7.18623,-2.60321 z"
       id="rect4488"
       inkscape:connector-curvature="0"
       sodipodi:nodetypes="ccccccc" />
  </g>
</svg>
