<?xml version="1.0" encoding="UTF-8" standalone="no"?>
<!-- Created with Inkscape (http://www.inkscape.org/) -->

<svg
   xmlns:dc="http://purl.org/dc/elements/1.1/"
   xmlns:cc="http://creativecommons.org/ns#"
   xmlns:rdf="http://www.w3.org/1999/02/22-rdf-syntax-ns#"
   xmlns:svg="http://www.w3.org/2000/svg"
   xmlns="http://www.w3.org/2000/svg"
   xmlns:sodipodi="http://sodipodi.sourceforge.net/DTD/sodipodi-0.dtd"
   xmlns:inkscape="http://www.inkscape.org/namespaces/inkscape"
   width="200mm"
   height="200mm"
   viewBox="0 0 200 200"
   version="1.1"
   id="svg8"
   sodipodi:docname="ActionBar_Submit_Disabled.svg"
   inkscape:version="0.92.1 r15371">
  <defs
     id="defs2" />
  <sodipodi:namedview
     id="base"
     pagecolor="#ffffff"
     bordercolor="#666666"
     borderopacity="1.0"
     inkscape:pageopacity="0.0"
     inkscape:pageshadow="2"
     inkscape:zoom="0.98994949"
     inkscape:cx="7.3926737"
     inkscape:cy="403.89167"
     inkscape:document-units="mm"
     inkscape:current-layer="layer1"
     showgrid="false"
     inkscape:window-width="1920"
     inkscape:window-height="1017"
     inkscape:window-x="1912"
     inkscape:window-y="-8"
     inkscape:window-maximized="1" />
  <metadata
     id="metadata5">
    <rdf:RDF>
      <cc:Work
         rdf:about="">
        <dc:format>image/svg+xml</dc:format>
        <dc:type
           rdf:resource="http://purl.org/dc/dcmitype/StillImage" />
        <dc:title></dc:title>
      </cc:Work>
    </rdf:RDF>
  </metadata>
  <g
     inkscape:label="Layer 1"
     inkscape:groupmode="layer"
     id="layer1"
     transform="translate(0,-97)">
    <path
       style="fill:#084665;fill-opacity:1;fill-rule:nonzero;stroke:none;stroke-width:18.89763832;stroke-linecap:square;stroke-linejoin:round;stroke-miterlimit:4;stroke-dasharray:none;stroke-opacity:1"
       d="M 112.8457 18.898438 C 81.737168 18.898438 56.693359 43.942243 56.693359 75.050781 L 56.693359 605.26562 C 56.693359 636.37416 81.737168 661.41797 112.8457 661.41797 L 321.17188 661.41797 L 228.54688 529.13477 L 139.9707 529.13477 C 125.24296 529.13477 113.38672 517.27657 113.38672 502.54883 L 113.38672 102.17578 C 113.38672 87.44804 125.24296 75.589844 139.9707 75.589844 L 615.93555 75.589844 C 630.66329 75.589844 642.51953 87.44804 642.51953 102.17578 L 642.51953 502.54883 C 642.51953 517.27657 630.66329 529.13477 615.93555 529.13477 L 597.08008 529.13477 C 597.20922 539.04188 597.38733 559.02324 596.98828 580.25586 C 596.67949 596.67821 596.11321 617.11834 593.32422 625.87305 C 590.30297 632.87606 581.91262 648.59712 574.78125 661.41797 L 643.06055 661.41797 C 674.16909 661.41797 699.21289 636.37416 699.21289 605.26562 L 699.21289 75.050781 C 699.21289 43.942243 674.16909 18.898438 643.06055 18.898438 L 112.8457 18.898438 z M 315.74609 529.13477 L 338.58594 561.75391 L 338.58594 529.13477 L 315.74609 529.13477 z "
       transform="matrix(0.26458333,0,0,0.26458333,0,97)"
       id="rect4496" />
    <path
       style="fill:none;fill-opacity:1;fill-rule:nonzero;stroke:#084665;stroke-width:10;stroke-linecap:square;stroke-linejoin:round;stroke-miterlimit:4;stroke-dasharray:none;stroke-opacity:1"
       d="m 98.584161,146.18744 c -4.985996,0 -8.999966,4.014 -8.999966,9 v 90.44328 l -21.97076,-31.37741 c -3.00265,-4.28824 -8.8722,-5.32293 -13.16043,-2.32027 -4.28824,3.00265 -5.32293,8.87221 -2.32028,13.16043 l 42.91419,61.28825 h 49.556655 c 0.35522,-1.5281 1.5025,-4.50701 4.65657,-9.52448 1.04881,-1.55496 6.38556,-11.16028 7.72356,-14.26166 0.73792,-2.31635 0.88775,-7.72447 0.96945,-12.06955 0.14551,-7.74223 7.9e-4,-15.00532 0,-15.26625 v -14.00277 c -1e-5,-4.15499 -3.3448,-7.4998 -7.49981,-7.4998 -3.16746,0 -5.8625,1.94501 -6.96546,4.70979 v -7.13806 c 0,-4.986 -4.01397,-8.99997 -8.99997,-8.99997 -3.90608,0 -7.21524,2.46338 -8.46563,5.92781 v -3.08509 c 0,-5.54 -4.45991,-9.9999 -9.99991,-9.9999 -3.55686,0 -6.66626,1.84008 -8.43824,4.62245 v -44.6068 c 0,-4.986 -4.01397,-9 -8.999969,-9 z"
       id="rect5036"
       inkscape:connector-curvature="0"
       sodipodi:nodetypes="ssccsccccccccscsscsscss" />
  </g>
</svg>
