﻿{
  "$schema": "http://schemastore.org/schemas/json/webjobs-list.json",
  "WebJobs": [
    {
      "filePath": "../Qualanex.QoskCloud.ScheduleReportJob/Qualanex.QoskCloud.ScheduleReportJob.csproj"
    },
    {
      "filePath": "../Qualanex.QoskCloud.SendNotificationJob/Qualanex.QoskCloud.SendNotificationJob.csproj"
    },
    {
      "filePath": "../Qualanex.QoskCloud.SubmitReportJob/Qualanex.QoskCloud.SubmitReportJob.csproj"
    }
  ]
}