<?xml version="1.0" encoding="UTF-8" standalone="no"?>
<!-- Created with Inkscape (http://www.inkscape.org/) -->

<svg
   xmlns:dc="http://purl.org/dc/elements/1.1/"
   xmlns:cc="http://creativecommons.org/ns#"
   xmlns:rdf="http://www.w3.org/1999/02/22-rdf-syntax-ns#"
   xmlns:svg="http://www.w3.org/2000/svg"
   xmlns="http://www.w3.org/2000/svg"
   xmlns:sodipodi="http://sodipodi.sourceforge.net/DTD/sodipodi-0.dtd"
   xmlns:inkscape="http://www.inkscape.org/namespaces/inkscape"
   width="37.183514mm"
   height="16.212118mm"
   viewBox="0 0 37.183514 16.212118"
   version="1.1"
   id="svg8"
   inkscape:version="0.92.1 r15371"
   sodipodi:docname="Qosk_Form_Collapse.svg">
  <defs
     id="defs2" />
  <sodipodi:namedview
     id="base"
     pagecolor="#ffffff"
     bordercolor="#666666"
     borderopacity="1.0"
     inkscape:pageopacity="0.0"
     inkscape:pageshadow="2"
     inkscape:zoom="1.4142136"
     inkscape:cx="99.562526"
     inkscape:cy="50.882354"
     inkscape:document-units="mm"
     inkscape:current-layer="layer1"
     showgrid="false"
     fit-margin-top="0"
     fit-margin-left="0"
     fit-margin-right="0"
     fit-margin-bottom="0"
     inkscape:window-width="1920"
     inkscape:window-height="1017"
     inkscape:window-x="-8"
     inkscape:window-y="-8"
     inkscape:window-maximized="1" />
  <metadata
     id="metadata5">
    <rdf:RDF>
      <cc:Work
         rdf:about="">
        <dc:format>image/svg+xml</dc:format>
        <dc:type
           rdf:resource="http://purl.org/dc/dcmitype/StillImage" />
        <dc:title></dc:title>
      </cc:Work>
    </rdf:RDF>
  </metadata>
  <g
     inkscape:label="Layer 1"
     inkscape:groupmode="layer"
     id="layer1"
     transform="translate(-54.038693,-16.130385)">
    <path
       style="opacity:1;fill:#c6c6c6;fill-opacity:1;fill-rule:nonzero;stroke:none;stroke-width:9.18353653;stroke-linecap:round;stroke-linejoin:round;stroke-miterlimit:4;stroke-dasharray:none;stroke-dashoffset:0;stroke-opacity:1;paint-order:markers fill stroke"
       d="m 56.411813,16.14711 c -0.764038,0.08728 -1.48426,0.505558 -1.937888,1.20406 -0.806424,1.241798 -0.46146,2.883264 0.780336,3.689696 l 17.3736,11.301638 c 5.790432,-3.769332 11.583326,-7.534882 17.378784,-11.29647 1.241796,-0.806432 1.58676,-2.453066 0.78031,-3.694864 -0.806424,-1.241798 -2.453058,-1.591914 -3.694854,-0.785482 l -14.46424,9.389608 -14.459056,-9.389608 c -0.310462,-0.201612 -0.645214,-0.3316 -0.987028,-0.39274 -0.256382,-0.04586 -0.515302,-0.05492 -0.769964,-0.02592 z"
       id="rect4498"
       inkscape:connector-curvature="0"
       sodipodi:nodetypes="ccccccccccc" />
  </g>
</svg>
