<?xml version="1.0" encoding="UTF-8" standalone="no"?>
<!-- Created with Inkscape (http://www.inkscape.org/) -->

<svg
   xmlns:dc="http://purl.org/dc/elements/1.1/"
   xmlns:cc="http://creativecommons.org/ns#"
   xmlns:rdf="http://www.w3.org/1999/02/22-rdf-syntax-ns#"
   xmlns:svg="http://www.w3.org/2000/svg"
   xmlns="http://www.w3.org/2000/svg"
   xmlns:xlink="http://www.w3.org/1999/xlink"
   xmlns:sodipodi="http://sodipodi.sourceforge.net/DTD/sodipodi-0.dtd"
   xmlns:inkscape="http://www.inkscape.org/namespaces/inkscape"
   width="200mm"
   height="200mm"
   viewBox="0 0 199.99999 200"
   version="1.1"
   id="svg8"
   sodipodi:docname="Qosk_MVC(1).svg"
   inkscape:version="0.92.1 r15371">
  <defs
     id="defs2">
    <linearGradient
       inkscape:collect="always"
       id="linearGradient4518">
      <stop
         style="stop-color:#ffffff;stop-opacity:1"
         offset="0"
         id="stop4514" />
      <stop
         style="stop-color:#93bade;stop-opacity:1"
         offset="1"
         id="stop4516" />
    </linearGradient>
    <linearGradient
       inkscape:collect="always"
       id="linearGradient4655">
      <stop
         style="stop-color:#000000;stop-opacity:1;"
         offset="0"
         id="stop4651" />
      <stop
         style="stop-color:#000000;stop-opacity:0;"
         offset="1"
         id="stop4653" />
    </linearGradient>
    <linearGradient
       inkscape:collect="always"
       xlink:href="#linearGradient4655"
       id="linearGradient4657" />
    <linearGradient
       inkscape:collect="always"
       xlink:href="#linearGradient4655"
       id="linearGradient4659" />
    <linearGradient
       inkscape:collect="always"
       xlink:href="#linearGradient4518"
       id="linearGradient4520"
       x1="260.61935"
       y1="-3.6918342"
       x2="262.63965"
       y2="693.31342"
       gradientUnits="userSpaceOnUse"
       gradientTransform="matrix(1.6310955,0,0,1.0890132,-198.50904,35.18939)" />
  </defs>
  <sodipodi:namedview
     id="base"
     pagecolor="#ffffff"
     bordercolor="#666666"
     borderopacity="1.0"
     inkscape:pageopacity="0.0"
     inkscape:pageshadow="2"
     inkscape:zoom="0.49497475"
     inkscape:cx="-85.941887"
     inkscape:cy="181.95492"
     inkscape:document-units="mm"
     inkscape:current-layer="flowRoot4501"
     showgrid="false"
     inkscape:window-width="1920"
     inkscape:window-height="1017"
     inkscape:window-x="1912"
     inkscape:window-y="-8"
     inkscape:window-maximized="1"
     fit-margin-top="0"
     fit-margin-left="0"
     fit-margin-right="0"
     fit-margin-bottom="0"
     inkscape:pagecheckerboard="true" />
  <metadata
     id="metadata5">
    <rdf:RDF>
      <cc:Work
         rdf:about="">
        <dc:format>image/svg+xml</dc:format>
        <dc:type
           rdf:resource="http://purl.org/dc/dcmitype/StillImage" />
        <dc:title></dc:title>
      </cc:Work>
    </rdf:RDF>
  </metadata>
  <g
     inkscape:label="Layer 1"
     inkscape:groupmode="layer"
     id="layer1"
     transform="translate(29.037023,53.000438)">
    <flowRoot
       xml:space="preserve"
       id="flowRoot4485"
       style="font-style:normal;font-weight:normal;font-size:192px;line-height:1.25;font-family:sans-serif;letter-spacing:0px;word-spacing:0px;fill:#000000;fill-opacity:1;stroke:none"><flowRegion
         id="flowRegion4487"
         style="font-size:192px"><rect
           id="rect4489"
           width="825.71429"
           height="574.28571"
           x="57.142857"
           y="91.09111"
           style="font-size:192px" /></flowRegion><flowPara
         id="flowPara4491" /></flowRoot>    <flowRoot
       xml:space="preserve"
       id="flowRoot4493"
       style="font-style:normal;font-weight:normal;font-size:192px;line-height:1.25;font-family:sans-serif;letter-spacing:0px;word-spacing:0px;fill:#000000;fill-opacity:1;stroke:none"><flowRegion
         id="flowRegion4495"
         style="font-size:192px"><rect
           id="rect4497"
           width="1154.2858"
           height="985.71429"
           x="0"
           y="19.662542"
           style="font-size:192px" /></flowRegion><flowPara
         id="flowPara4499" /></flowRoot>    <g
       aria-label="M"
       transform="matrix(0.21678214,0,0,0.26880791,13.996192,-62.459623)"
       style="font-style:normal;font-weight:normal;font-size:8px;line-height:1.25;font-family:sans-serif;letter-spacing:0px;word-spacing:0px;fill:#000000;fill-opacity:1;stroke:none;stroke-width:41.42544937;stroke-miterlimit:4;stroke-dasharray:none"
       id="flowRoot4501">
      <path
         style="font-style:normal;font-variant:normal;font-weight:normal;font-stretch:normal;font-size:400px;font-family:Impact;-inkscape-font-specification:Impact;fill:url(#linearGradient4520);fill-opacity:1;stroke-width:50.37253571;stroke-miterlimit:4;stroke-dasharray:none"
         d="M -198.50904,35.189385 V 385.04551 h 96.05305 V 154.25767 l 40.458814,230.78784 H 6.1297391 L 44.498717,148.85514 V 385.04551 H 140.55177 V 35.189385 H -2.7457205 L -27.804698,198.55625 -42.943303,109.52517 C -47.64163,81.000763 -52.07701,56.22254 -56.253297,35.189385 Z M 168.23577,236.62917 v 171.3324 h -7.17745 L 199.41774,586.4853 H 397.10207 L 463.30479,236.62917 H 325.94871 l -8.97421,65.04514 c -7.42473,52.29475 -14.53842,112.08022 -21.34442,179.3575 -6.80599,-66.55696 -18.14935,-148.0247 -34.03001,-244.40264 z m 384.09115,192.72982 c -31.12331,0 -58.72277,3.24992 -82.80358,9.74793 -5.25201,1.40028 -10.242,2.9254 -14.99844,4.56025 L 423.51498,607.536 h -38.50277 v 45.38335 c 0,32.90488 4.43095,57.58346 13.29086,74.03589 8.85993,16.31417 26.91848,29.10331 54.17978,38.36643 27.2613,9.26314 61.90672,13.89344 103.93455,13.89344 40.43759,0 74.40084,-5.45979 101.88931,-16.382 27.71566,-10.92222 45.55,-23.64328 53.50122,-38.16012 8.17839,-14.51686 12.26826,-39.12524 12.26826,-73.82744 V 637.77952 H 580.61305 v 42.09929 c 0,18.388 -1.70546,30.07115 -5.1131,35.04835 -3.1805,4.9772 -10.10957,7.4657 -20.78692,7.4657 -11.13168,0 -18.28817,-2.4885 -21.46866,-7.4657 -3.18047,-4.9772 -4.76901,-15.62241 -4.76904,-31.93658 V 527.03836 c 2e-5,-17.00547 1.58857,-28.06754 4.76904,-33.183 3.18049,-5.11547 10.67806,-7.67201 22.49129,-7.67201 10.45017,0 17.15186,2.14179 20.10517,6.42773 3.18047,4.14767 4.77222,14.72482 4.77222,31.73027 v 58.48128 h 143.46314 v -31.93659 c 0,-31.38404 -4.31727,-54.47169 -12.95002,-69.26506 -8.63274,-14.93161 -26.69446,-27.3762 -54.18296,-37.3306 -27.48845,-9.95442 -62.36127,-14.93139 -104.61629,-14.93139 z"
         id="path4608"
         inkscape:connector-curvature="0" />
    </g>
    <g
       aria-label="V"
       transform="matrix(0.25693431,0,0,0.26880791,70.623869,-13.517957)"
       style="font-style:normal;font-weight:normal;font-size:8px;line-height:1.25;font-family:sans-serif;letter-spacing:0px;word-spacing:0px;fill:#000000;fill-opacity:1;stroke:none;stroke-width:38.05116272;stroke-miterlimit:4;stroke-dasharray:none"
       id="flowRoot4501-8" />
    <g
       aria-label="C"
       transform="matrix(0.28301508,0,0,0.25797273,108.4163,36.176706)"
       style="font-style:normal;font-weight:normal;font-size:8px;line-height:1.25;font-family:sans-serif;letter-spacing:0px;word-spacing:0px;fill:#000000;fill-opacity:1;stroke:none"
       id="flowRoot4501-82" />
    <flowRoot
       style="font-style:normal;font-weight:normal;font-size:192px;line-height:1.25;font-family:sans-serif;letter-spacing:0px;word-spacing:0px;fill:#000000;fill-opacity:1;stroke:#55aeb7;stroke-width:20;stroke-miterlimit:4;stroke-dasharray:none;stroke-opacity:1"
       id="flowRoot4617"
       xml:space="preserve"><flowRegion
         style="font-size:192px;fill:#000000;fill-opacity:1;stroke:#55aeb7;stroke-width:20;stroke-miterlimit:4;stroke-dasharray:none;stroke-opacity:1"
         id="flowRegion4613"><rect
           style="font-size:192px;fill:#000000;fill-opacity:1;stroke:#55aeb7;stroke-width:20;stroke-miterlimit:4;stroke-dasharray:none;stroke-opacity:1"
           y="91.09111"
           x="57.142857"
           height="574.28571"
           width="825.71429"
           id="rect4611" /></flowRegion><flowPara
         id="flowPara4615"
         style="fill:#000000;fill-opacity:1;stroke:#55aeb7;stroke-width:20;stroke-miterlimit:4;stroke-dasharray:none;stroke-opacity:1" /></flowRoot>    <flowRoot
       style="font-style:normal;font-weight:normal;font-size:192px;line-height:1.25;font-family:sans-serif;letter-spacing:0px;word-spacing:0px;fill:#000000;fill-opacity:1;stroke:#55aeb7;stroke-width:20;stroke-miterlimit:4;stroke-dasharray:none;stroke-opacity:1"
       id="flowRoot4625"
       xml:space="preserve"><flowRegion
         style="font-size:192px;fill:#000000;fill-opacity:1;stroke:#55aeb7;stroke-width:20;stroke-miterlimit:4;stroke-dasharray:none;stroke-opacity:1"
         id="flowRegion4621"><rect
           style="font-size:192px;fill:#000000;fill-opacity:1;stroke:#55aeb7;stroke-width:20;stroke-miterlimit:4;stroke-dasharray:none;stroke-opacity:1"
           y="19.662542"
           x="0"
           height="985.71429"
           width="1154.2858"
           id="rect4619" /></flowRegion><flowPara
         id="flowPara4623"
         style="fill:#000000;fill-opacity:1;stroke:#55aeb7;stroke-width:20;stroke-miterlimit:4;stroke-dasharray:none;stroke-opacity:1" /></flowRoot>    <g
       id="g4629"
       style="font-style:normal;font-weight:normal;font-size:8px;line-height:1.25;font-family:sans-serif;letter-spacing:0px;word-spacing:0px;fill:#000000;fill-opacity:1;stroke:#55aeb7;stroke-width:41.42544937;stroke-miterlimit:4;stroke-dasharray:none;stroke-opacity:1"
       transform="matrix(0.21678214,0,0,0.26880791,13.996192,-62.459623)"
       aria-label="M" />
    <g
       id="g4633"
       style="font-style:normal;font-weight:normal;font-size:8px;line-height:1.25;font-family:sans-serif;letter-spacing:0px;word-spacing:0px;fill:#000000;fill-opacity:1;stroke:#55aeb7;stroke-width:38.05116272;stroke-miterlimit:4;stroke-dasharray:none;stroke-opacity:1"
       transform="matrix(0.25693431,0,0,0.26880791,70.623869,-13.517957)"
       aria-label="V" />
    <g
       id="g4641"
       style="font-style:normal;font-weight:normal;font-size:8px;line-height:1.25;font-family:sans-serif;letter-spacing:0px;word-spacing:0px;fill:#000000;fill-opacity:1;stroke:#55aeb7;stroke-width:36.04033279;stroke-miterlimit:4;stroke-dasharray:none;stroke-opacity:1"
       transform="matrix(0.29241952,0,0,0.26327889,6.8348709,87.169856)"
       aria-label="U" />
    <g
       id="g4645"
       style="font-style:normal;font-weight:normal;font-size:8px;line-height:1.25;font-family:sans-serif;letter-spacing:0px;word-spacing:0px;fill:#000000;fill-opacity:1;stroke:#55aeb7;stroke-width:35.23924255;stroke-miterlimit:4;stroke-dasharray:none;stroke-opacity:1"
       transform="matrix(0.29957447,0,0,0.26880791,-251.28862,-52.096519)"
       aria-label="R" />
  </g>
</svg>
