<?xml version="1.0" encoding="UTF-8" standalone="no"?>
<!-- Created with Inkscape (http://www.inkscape.org/) -->

<svg
   xmlns:dc="http://purl.org/dc/elements/1.1/"
   xmlns:cc="http://creativecommons.org/ns#"
   xmlns:rdf="http://www.w3.org/1999/02/22-rdf-syntax-ns#"
   xmlns:svg="http://www.w3.org/2000/svg"
   xmlns="http://www.w3.org/2000/svg"
   xmlns:sodipodi="http://sodipodi.sourceforge.net/DTD/sodipodi-0.dtd"
   xmlns:inkscape="http://www.inkscape.org/namespaces/inkscape"
   width="41.927002mm"
   height="33.906975mm"
   viewBox="0 0 41.927002 33.906975"
   version="1.1"
   id="svg8"
   inkscape:version="0.92.1 r15371"
   sodipodi:docname="Qosk_Ctrl0.svg">
  <defs
     id="defs2">
    <pattern
       y="0"
       x="0"
       height="6"
       width="6"
       patternUnits="userSpaceOnUse"
       id="EMFhbasepattern" />
  </defs>
  <sodipodi:namedview
     id="base"
     pagecolor="#ffffff"
     bordercolor="#666666"
     borderopacity="1.0"
     inkscape:pageopacity="0.0"
     inkscape:pageshadow="2"
     inkscape:zoom="2.8"
     inkscape:cx="-78.019312"
     inkscape:cy="21.592076"
     inkscape:document-units="mm"
     inkscape:current-layer="layer1"
     showgrid="false"
     inkscape:window-width="1920"
     inkscape:window-height="1017"
     inkscape:window-x="1912"
     inkscape:window-y="-8"
     inkscape:window-maximized="1"
     fit-margin-top="0"
     fit-margin-left="0"
     fit-margin-right="0"
     fit-margin-bottom="0" />
  <metadata
     id="metadata5">
    <rdf:RDF>
      <cc:Work
         rdf:about="">
        <dc:format>image/svg+xml</dc:format>
        <dc:type
           rdf:resource="http://purl.org/dc/dcmitype/StillImage" />
        <dc:title />
      </cc:Work>
    </rdf:RDF>
  </metadata>
  <g
     inkscape:label="Layer 1"
     inkscape:groupmode="layer"
     id="layer1"
     transform="translate(-4.483964,-215.96844)">
    <flowRoot
       xml:space="preserve"
       id="flowRoot4485"
       style="font-style:normal;font-weight:normal;font-size:293.33334351px;line-height:1.25;font-family:sans-serif;letter-spacing:0px;word-spacing:0px;fill:#000000;fill-opacity:1;stroke:none"
       transform="matrix(0.26458333,0,0,0.26458333,0,207)"><flowRegion
         id="flowRegion4487"
         style="font-size:293.33334351px"><rect
           id="rect4489"
           width="599.02045"
           height="333.35034"
           x="3.0304577"
           y="3.7766731"
           style="font-size:293.33334351px" /></flowRegion><flowPara
         id="flowPara4491"
         style="font-style:normal;font-variant:normal;font-weight:normal;font-stretch:normal;font-size:192px;font-family:serif;-inkscape-font-specification:serif" /></flowRoot>    <flowRoot
       xml:space="preserve"
       id="flowRoot4493"
       style="font-style:normal;font-weight:normal;font-size:8px;line-height:1.25;font-family:sans-serif;letter-spacing:0px;word-spacing:0px;fill:#000000;fill-opacity:1;stroke:none"
       transform="matrix(0.26458333,0,0,0.26458333,0,207)"><flowRegion
         id="flowRegion4495"><rect
           id="rect4497"
           width="288.90363"
           height="18.182745"
           x="-217.1828"
           y="8.8274355" /></flowRegion><flowPara
         id="flowPara4499" /></flowRoot>    <flowRoot
       xml:space="preserve"
       id="flowRoot4501"
       style="font-style:normal;font-weight:normal;font-size:8px;line-height:1.25;font-family:sans-serif;letter-spacing:0px;word-spacing:0px;fill:#000000;fill-opacity:1;stroke:none"
       transform="matrix(0.26458333,0,0,0.26458333,0,207)"><flowRegion
         id="flowRegion4503"><rect
           id="rect4505"
           width="512.14288"
           height="20.714285"
           x="-208.57143"
           y="145.87175" /></flowRegion><flowPara
         id="flowPara4507" /></flowRoot>    <flowRoot
       xml:space="preserve"
       id="flowRoot4509"
       style="font-style:normal;font-weight:normal;font-size:8px;line-height:1.25;font-family:sans-serif;letter-spacing:0px;word-spacing:0px;fill:#000000;fill-opacity:1;stroke:none"
       transform="matrix(0.26458333,0,0,0.26458333,0,207)"><flowRegion
         id="flowRegion4511"><rect
           id="rect4513"
           width="430"
           height="27.857143"
           x="-159.28572"
           y="193.7289" /></flowRegion><flowPara
         id="flowPara4515" /></flowRoot>    <g
       aria-label="C"
       transform="matrix(0.26458333,0,0,0.26458333,1.5367998,205.4632)"
       style="font-style:normal;font-weight:normal;font-size:8px;line-height:1.25;font-family:sans-serif;letter-spacing:0px;word-spacing:0px;fill:#000000;fill-opacity:1;stroke:none"
       id="flowRoot4517">
      <path
         style="font-style:normal;font-variant:normal;font-weight:normal;font-stretch:normal;font-size:160px;font-family:'Gill Sans Ultra Bold';-inkscape-font-specification:'Gill Sans Ultra Bold, '"
         d="m 83.353516,33.896484 c -19.270833,0 -35.156252,5.885419 -47.65625,17.65625 -12.5,11.71875 -18.751417,26.614587 -18.75,44.6875 v 1.732422 1.732422 c -0.0014,18.072912 6.25,32.968732 18.75,44.687502 12.499997,11.77085 28.385417,17.65625 47.65625,17.65625 h 25.781254 66.27675 V 136.7207 H 87.884766 c -26.555692,0 -44.796875,-12.53919 -44.796875,-35.14062 v -3.607424 -3.607422 c 0,-17.722415 11.159537,-35.140625 44.796875,-35.140625 H 175.41152 V 33.896484 h -66.27675 z"
         transform="translate(-5.8083773,5.808378)"
         id="path4533"
         inkscape:connector-curvature="0"
         sodipodi:nodetypes="scccccscccsscsscccs" />
    </g>
    <flowRoot
       xml:space="preserve"
       id="flowRoot4525"
       style="font-style:normal;font-weight:normal;font-size:8px;line-height:1.25;font-family:sans-serif;letter-spacing:0px;word-spacing:0px;fill:#000000;fill-opacity:1;stroke:none"
       transform="matrix(0.26458333,0,0,0.26458333,0,207)"><flowRegion
         id="flowRegion4527"><rect
           id="rect4529"
           width="409.28571"
           height="60.714287"
           x="-269.28571"
           y="-4.8425298" /></flowRegion><flowPara
         id="flowPara4531" /></flowRoot>    <flowRoot
       xml:space="preserve"
       id="flowRoot4641"
       style="font-style:normal;font-weight:normal;font-size:8px;line-height:1.25;font-family:sans-serif;letter-spacing:0px;word-spacing:0px;fill:#000000;fill-opacity:1;stroke:none"
       transform="matrix(0.26458333,0,0,0.26458333,4.483964,215.96844)"><flowRegion
         id="flowRegion4643"><rect
           id="rect4645"
           width="98.571426"
           height="11.428572"
           x="23.928572"
           y="32.7952" /></flowRegion><flowPara
         id="flowPara4647" /></flowRoot>    <flowRoot
       xml:space="preserve"
       id="flowRoot4649"
       style="font-style:normal;font-weight:normal;font-size:8px;line-height:1.25;font-family:sans-serif;letter-spacing:0px;word-spacing:0px;fill:#000000;fill-opacity:1;stroke:none"
       transform="matrix(0.26458333,0,0,0.26458333,4.483964,215.96844)"><flowRegion
         id="flowRegion4651"><rect
           id="rect4653"
           width="183.57143"
           height="22.5"
           x="28.928572"
           y="63.866631" /></flowRegion><flowPara
         id="flowPara4655" /></flowRoot>    <g
       aria-label="0"
       transform="matrix(0.2492375,0,0,0.2492375,8.2060832,209.17366)"
       style="font-style:normal;font-weight:normal;font-size:8px;line-height:1.25;font-family:sans-serif;letter-spacing:0px;word-spacing:0px;fill:#000000;fill-opacity:1;stroke:none"
       id="flowRoot4506">
      <path
         inkscape:connector-curvature="0"
         d="m 54.896484,95.52996 q 0,-10.875 3.28125,-18.703125 3.28125,-7.875 8.71875,-11.71875 4.21875,-3.046875 8.71875,-3.046875 7.3125,0 13.125,7.453125 7.265625,9.234375 7.265625,25.03125 0,11.062495 -3.1875,18.796875 -3.1875,7.73437 -8.15625,11.25 -4.921875,3.46875 -9.515625,3.46875 -9.09375,0 -15.140625,-10.73438 -5.109375,-9.04687 -5.109375,-21.79687 z m 9.1875,1.171875 q 0,13.124995 3.234375,21.421875 2.671875,6.98437 7.96875,6.98437 2.53125,0 5.25,-2.25 2.71875,-2.29687 4.125,-7.64062 2.15625,-8.0625 2.15625,-22.734375 0,-10.875 -2.25,-18.140625 -1.6875,-5.390625 -4.359375,-7.640625 -1.921875,-1.546875 -4.640625,-1.546875 -3.1875,0 -5.671875,2.859375 -3.375,3.890625 -4.59375,12.234375 -1.21875,8.34375 -1.21875,16.453125 z"
         style="font-style:normal;font-variant:normal;font-weight:normal;font-stretch:normal;font-size:96px;font-family:Serif;-inkscape-font-specification:Serif"
         id="path4508" />
    </g>
  </g>
</svg>
